Standardized NEON Organismal Data for Biodiversity Research • neonDivData
…
Installation

You can install the development version of neonDivData from Github with:

# install.packages("devtools")
devtools::install_github("daijiang/neonDivData")

Available data products

neonDivData::neon_sites
#> # A tibble: 81 × 10
#>    `Site Name`            siteID `Domain Name` domainID State Latitude Longitude
#>    <chr>                  <chr>  <chr>         <chr>    <chr>    <dbl>     <dbl>
#>  1 Little Rock Lake       LIRO   Great Lakes   D05      WI        46.0     -89.7
#>  2 West St Louis Creek    WLOU   Southern Roc… D13      CO        39.9    -106. 
#>  3 Pu'u Maka'ala Natural… PUUM   Pacific Trop… D20      HI        19.6    -155. 
#>  4 Flint River            FLNT   Southeast     D03      GA        31.2     -84.4
#>  5 McDiffett Creek        MCDI   Prairie Peni… D06      KS        38.9     -96.4
#>  6 Lewis Run              LEWI   Mid-Atlantic  D02      VA        39.1     -78.0
#>  7 Blue River             BLUE   Southern Pla… D11      OK        34.4     -96.6
#>  8 Teakettle 2 Creek      TECR   Pacific Sout… D17      CA        37.0    -119. 
#>  9 Lower Hop Brook        HOPB   Northeast     D01      MA        42.5     -72.3
#> 10 Martha Creek           MART   Pacific Nort… D16      WA        45.8    -122. 
#> # … with 71 more rows, and 3 more variables: `Site Type` <chr>,
#> #   `Site Subtype` <chr>, `Site Host` <chr>
neonDivData::neon_taxa
#> # A tibble: 12,312 × 4
#>    taxon_id       taxon_name                              taxon_rank taxon_group
#>    <chr>          <chr>                                   <chr>      <chr>      
#>  1 NEONDREX48008  Nitzschia dissipata (Kützing) Grunow    species    ALGAE      
#>  2 NEONDREX33183  Eunotia minor (Kützing) Grunow          species    ALGAE      
#>  3 NEONDREX186008 Psammothidium subatomoides (Hustedt) B… species    ALGAE      
#>  4 NEONDREX1032   Achnanthidium latecephalum Kobayashi    species    ALGAE      
#>  5 NEONDREX37311  Gomphonema parvulius (Lange-Bertalot e… species    ALGAE      
#>  6 NEONDREX155017 Planothidium frequentissimum (Lange-Be… species    ALGAE      
#>  7 NEONDREX62008  Stauroneis kriegeri Patrick             species    ALGAE      
#>  8 NEONDREX172006 Staurosira construens var. venter (Ehr… variety    ALGAE      
#>  9 NEONDREX1036   Achnanthidium rivulare Potapova et Pon… species    ALGAE      
#> 10 NEONDREX48025  Nitzschia palea (Kützing) Smith         species    ALGAE      
#> # … with 12,302 more rows
neonDivData::neon_location
#> # A tibble: 4,259 × 8
#>    location_id             siteID plotID  latitude longitude elevation nlcdClass
#>    <chr>                   <chr>  <chr>      <dbl>     <dbl>     <dbl> <chr>    
#>  1 ABBY_001.basePlot.brd   ABBY   ABBY_0…     45.8     -122.      303. evergree…
#>  2 ABBY_001.basePlot.div   ABBY   ABBY_0…     45.8     -122.      303. evergree…
#>  3 ABBY_001.tickPlot.tck   ABBY   ABBY_0…     45.8     -122.      298. evergree…
#>  4 ABBY_002.basePlot.bet   ABBY   ABBY_0…     45.7     -122.      638. grasslan…
#>  5 ABBY_002.basePlot.brd   ABBY   ABBY_0…     45.7     -122.      638. grasslan…
#>  6 ABBY_002.basePlot.div   ABBY   ABBY_0…     45.7     -122.      638. grasslan…
#>  7 ABBY_002.mammalGrid.mam ABBY   ABBY_0…     45.7     -122.      624. grasslan…
#>  8 ABBY_002.tickPlot.tck   ABBY   ABBY_0…     45.7     -122.      651. grasslan…
#>  9 ABBY_003.basePlot.bet   ABBY   ABBY_0…     45.8     -122.      602. evergree…
#> 10 ABBY_003.basePlot.brd   ABBY   ABBY_0…     45.8     -122.      602. evergree…
#> # … with 4,249 more rows, and 1 more variable: aquaticSiteType <chr>
neonDivData::data_algae
#> # A tibble: 114,340 × 25
#>    location_id   siteID unique_sample_id observation_dateti… taxon_id taxon_name
#>    <chr>         <chr>  <chr>            <dttm>              <chr>    <chr>     
#>  1 HOPB.AOS.rea… HOPB   HOPB.20161005.E… 2016-10-05 10:45:00 NEONDRE… Nitzschia…
#>  2 HOPB.AOS.rea… HOPB   HOPB.20161005.E… 2016-10-05 10:45:00 NEONDRE… Eunotia m…
#>  3 HOPB.AOS.rea… HOPB   HOPB.20161005.E… 2016-10-05 10:45:00 NEONDRE… Psammothi…
#>  4 HOPB.AOS.rea… HOPB   HOPB.20161005.E… 2016-10-05 10:45:00 NEONDRE… Achnanthi…
#>  5 HOPB.AOS.rea… HOPB   HOPB.20161005.E… 2016-10-05 10:45:00 NEONDRE… Gomphonem…
#>  6 HOPB.AOS.rea… HOPB   HOPB.20161005.E… 2016-10-05 10:45:00 NEONDRE… Planothid…
#>  7 HOPB.AOS.rea… HOPB   HOPB.20161005.E… 2016-10-05 10:45:00 NEONDRE… Stauronei…
#>  8 HOPB.AOS.rea… HOPB   HOPB.20161005.E… 2016-10-05 10:45:00 NEONDRE… Staurosir…
#>  9 HOPB.AOS.rea… HOPB   HOPB.20161005.E… 2016-10-05 10:45:00 NEONDRE… Achnanthi…
#> 10 HOPB.AOS.rea… HOPB   HOPB.20161005.E… 2016-10-05 10:45:00 NEONDRE… Nitzschia…
#> # … with 114,330 more rows, and 19 more variables: taxon_rank <chr>,
#> #   variable_name <chr>, value <dbl>, unit <chr>, sampleCondition <chr>,
#> #   perBottleSampleVolume <chr>, release <chr>, habitatType <chr>,
#> #   algalSampleType <chr>, benthicArea <chr>, samplingProtocolVersion <chr>,
#> #   substratumSizeClass <chr>, samplerType <chr>, phytoDepth1 <chr>,
#> #   phytoDepth2 <chr>, phytoDepth3 <chr>, latitude <dbl>, longitude <dbl>,
#> #   elevation <dbl>
neonDivData::data_beetle
#> # A tibble: 71,660 × 22
#>    location_id         siteID plotID unique_sample_id trapID observation_dateti…
#>    <chr>               <chr>  <chr>  <chr>            <chr>  <dttm>             
#>  1 ABBY_002.basePlot.… ABBY   ABBY_… ABBY_002.E.2016… E      2016-09-13 00:00:00
#>  2 ABBY_002.basePlot.… ABBY   ABBY_… ABBY_002.E.2016… E      2016-09-13 00:00:00
#>  3 ABBY_002.basePlot.… ABBY   ABBY_… ABBY_002.E.2016… E      2016-09-27 00:00:00
#>  4 ABBY_002.basePlot.… ABBY   ABBY_… ABBY_002.E.2017… E      2017-05-17 00:00:00
#>  5 ABBY_002.basePlot.… ABBY   ABBY_… ABBY_002.E.2017… E      2017-05-31 00:00:00
#>  6 ABBY_002.basePlot.… ABBY   ABBY_… ABBY_002.E.2017… E      2017-05-31 00:00:00
#>  7 ABBY_002.basePlot.… ABBY   ABBY_… ABBY_002.E.2017… E      2017-06-14 00:00:00
#>  8 ABBY_002.basePlot.… ABBY   ABBY_… ABBY_002.E.2017… E      2017-06-14 00:00:00
#>  9 ABBY_002.basePlot.… ABBY   ABBY_… ABBY_002.E.2017… E      2017-06-28 00:00:00
#> 10 ABBY_002.basePlot.… ABBY   ABBY_… ABBY_002.E.2018… E      2018-05-01 00:00:00
#> # … with 71,650 more rows, and 16 more variables: taxon_id <chr>,
#> #   taxon_name <chr>, taxon_rank <chr>, variable_name <chr>, value <dbl>,
#> #   unit <chr>, boutID <chr>, nativeStatusCode <chr>, release <chr>,
#> #   remarks <chr>, samplingProtocolVersion <chr>, trappingDays <chr>,
#> #   latitude <dbl>, longitude <dbl>, elevation <dbl>, nlcdClass <chr>
neonDivData::data_bird
#> # A tibble: 226,804 × 35
#>    location_id        siteID plotID pointID unique_sample_id observation_dateti…
#>    <chr>              <chr>  <chr>  <list>  <chr>            <dttm>             
#>  1 BART_025.birdGrid… BART   BART_… <chr>   BART_025.C1.201… 2015-06-14 09:23:00
#>  2 BART_025.birdGrid… BART   BART_… <chr>   BART_025.C1.201… 2015-06-14 09:23:00
#>  3 BART_025.birdGrid… BART   BART_… <chr>   BART_025.C1.201… 2015-06-14 09:23:00
#>  4 BART_025.birdGrid… BART   BART_… <chr>   BART_025.C1.201… 2015-06-14 09:23:00
#>  5 BART_025.birdGrid… BART   BART_… <chr>   BART_025.C1.201… 2015-06-14 09:23:00
#>  6 BART_025.birdGrid… BART   BART_… <chr>   BART_025.B1.201… 2015-06-14 09:43:00
#>  7 BART_025.birdGrid… BART   BART_… <chr>   BART_025.B1.201… 2015-06-14 09:43:00
#>  8 BART_025.birdGrid… BART   BART_… <chr>   BART_025.B1.201… 2015-06-14 09:43:00
#>  9 BART_025.birdGrid… BART   BART_… <chr>   BART_025.B1.201… 2015-06-14 09:43:00
#> 10 BART_025.birdGrid… BART   BART_… <chr>   BART_025.A1.201… 2015-06-14 10:31:00
#> # … with 226,794 more rows, and 29 more variables: taxon_id <chr>,
#> #   taxon_name <chr>, taxon_rank <chr>, variable_name <chr>, value <dbl>,
#> #   unit <chr>, pointCountMinute <list>, targetTaxaPresent <list>,
#> #   nativeStatusCode <list>, observerDistance <list>, detectionMethod <list>,
#> #   visualConfirmation <list>, sexOrAge <list>, release <list>,
#> #   startCloudCoverPercentage <list>, endCloudCoverPercentage <list>,
#> #   startRH <list>, endRH <list>, observedHabitat <list>, …
neonDivData::data_fish
#> # A tibble: 6,639 × 29
#>    location_id      siteID pointID unique_sample_id observation_dateti… taxon_id
#>    <chr>            <chr>  <chr>   <chr>            <dttm>              <chr>   
#>  1 HOPB.AOS.fish.p… HOPB   point.… HOPB.20170501.0… 2017-05-01 00:00:00 RHIATR  
#>  2 HOPB.AOS.fish.p… HOPB   point.… HOPB.20170501.0… 2017-05-01 00:00:00 SALTRU  
#>  3 HOPB.AOS.fish.p… HOPB   point.… HOPB.20170501.0… 2017-05-01 00:00:00 SALFON  
#>  4 HOPB.AOS.fish.p… HOPB   point.… HOPB.20171023.0… 2017-10-23 00:00:00 RHIATR  
#>  5 HOPB.AOS.fish.p… HOPB   point.… HOPB.20171023.0… 2017-10-23 00:00:00 SALTRU  
#>  6 HOPB.AOS.fish.p… HOPB   point.… HOPB.20171023.0… 2017-10-23 00:00:00 SALFON  
#>  7 HOPB.AOS.fish.p… HOPB   point.… HOPB.20171023.0… 2017-10-23 00:00:00 SEMATR  
#>  8 HOPB.AOS.fish.p… HOPB   point.… HOPB.20190506.0… 2019-05-06 00:00:00 RHIATR  
#>  9 HOPB.AOS.fish.p… HOPB   point.… HOPB.20190506.0… 2019-05-06 00:00:00 SALFON  
#> 10 HOPB.AOS.fish.p… HOPB   point.… HOPB.20190506.0… 2019-05-06 00:00:00 SEMATR  
#> # … with 6,629 more rows, and 23 more variables: taxon_name <chr>,
#> #   taxon_rank <chr>, variable_name <chr>, value <dbl>, unit <chr>,
#> #   reachID <chr>, samplerType <chr>, fixedRandomReach <chr>,
#> #   measuredReachLength <chr>, efTime <chr>, passStartTime <chr>,
#> #   passEndTime <chr>, mean_efishtime <chr>, release <chr>, netSetTime <chr>,
#> #   netEndTime <chr>, netDeploymentTime <chr>, netLength <chr>, netDepth <chr>,
#> #   efTime2 <chr>, latitude <dbl>, longitude <dbl>, elevation <dbl>
neonDivData::data_herp_bycatch
#> # A tibble: 2,732 × 22
#>    location_id         siteID plotID unique_sample_id trapID observation_dateti…
#>    <chr>               <chr>  <chr>  <chr>            <chr>  <dttm>             
#>  1 BART_066.basePlot.… BART   BART_… BART_066.E.2014… E      2014-06-12 00:00:00
#>  2 BART_002.basePlot.… BART   BART_… BART_002.W.2014… W      2014-06-12 00:00:00
#>  3 BART_028.basePlot.… BART   BART_… BART_028.W.2014… W      2014-06-12 00:00:00
#>  4 BART_066.basePlot.… BART   BART_… BART_066.N.2014… N      2014-06-26 00:00:00
#>  5 BART_031.basePlot.… BART   BART_… BART_031.E.2014… E      2014-06-26 00:00:00
#>  6 BART_068.basePlot.… BART   BART_… BART_068.W.2014… W      2014-06-26 00:00:00
#>  7 BART_028.basePlot.… BART   BART_… BART_028.N.2014… N      2014-07-10 00:00:00
#>  8 BART_002.basePlot.… BART   BART_… BART_002.N.2014… N      2014-07-10 00:00:00
#>  9 BART_031.basePlot.… BART   BART_… BART_031.S.2014… S      2014-07-10 00:00:00
#> 10 BART_068.basePlot.… BART   BART_… BART_068.E.2014… E      2014-07-24 00:00:00
#> # … with 2,722 more rows, and 16 more variables: taxon_id <chr>,
#> #   taxon_name <chr>, taxon_rank <chr>, variable_name <chr>, value <dbl>,
#> #   unit <chr>, trappingDays <chr>, release <chr>, nativeStatusCode <chr>,
#> #   remarksSorting <chr>, remarksFielddata <chr>, latitude <dbl>,
#> #   longitude <dbl>, elevation <dbl>, plotType <chr>, nlcdClass <chr>
neonDivData::data_macroinvertebrate
#> # A tibble: 106,641 × 25
#>    location_id   siteID unique_sample_id observation_dateti… taxon_id taxon_name
#>    <chr>         <chr>  <chr>            <dttm>              <chr>    <chr>     
#>  1 ARIK.AOS.rea… ARIK   ARIK.20140714.C… 2014-07-14 17:51:00 ABLSP    Ablabesmy…
#>  2 ARIK.AOS.rea… ARIK   ARIK.20140714.C… 2014-07-14 17:51:00 BAESP    Baetidae …
#>  3 ARIK.AOS.rea… ARIK   ARIK.20140714.C… 2014-07-14 17:51:00 CAESP5   Caenis sp.
#>  4 ARIK.AOS.rea… ARIK   ARIK.20140714.C… 2014-07-14 17:51:00 CALFLU   Callibaet…
#>  5 ARIK.AOS.rea… ARIK   ARIK.20140714.C… 2014-07-14 17:51:00 CERSP18  Ceratopog…
#>  6 ARIK.AOS.rea… ARIK   ARIK.20140714.C… 2014-07-14 17:51:00 CHISP2   Chironomi…
#>  7 ARIK.AOS.rea… ARIK   ARIK.20140714.C… 2014-07-14 17:51:00 CHISP8   Chironomu…
#>  8 ARIK.AOS.rea… ARIK   ARIK.20140714.C… 2014-07-14 17:51:00 CLISP3   Clinotany…
#>  9 ARIK.AOS.rea… ARIK   ARIK.20140714.C… 2014-07-14 17:51:00 COESP    Coenagrio…
#> 10 ARIK.AOS.rea… ARIK   ARIK.20140714.C… 2014-07-14 17:51:00 CORSP4   Corixidae…
#> # … with 106,631 more rows, and 19 more variables: taxon_rank <chr>,
#> #   variable_name <chr>, value <dbl>, unit <chr>, estimatedTotalCount <chr>,
#> #   individualCount <chr>, subsamplePercent <chr>, release <chr>,
#> #   benthicArea <chr>, habitatType <chr>, samplerType <chr>,
#> #   substratumSizeClass <chr>, remarks <chr>, ponarDepth <dbl>,
#> #   snagLength <dbl>, snagDiameter <dbl>, latitude <dbl>, longitude <dbl>,
#> #   elevation <dbl>
neonDivData::data_mosquito
#> # A tibble: 109,212 × 26
#>    location_id     siteID unique_sample_id subsampleID observation_dat… taxon_id
#>    <chr>           <chr>  <chr>            <chr>       <date>           <chr>   
#>  1 BART_059.mosqu… BART   BART_059.201406… BART_059.2… 2014-06-03       AEDCOM  
#>  2 BART_059.mosqu… BART   BART_059.201406… BART_059.2… 2014-06-03       AEDABS  
#>  3 BART_059.mosqu… BART   BART_059.201406… BART_059.2… 2014-06-03       AEDINT  
#>  4 BART_058.mosqu… BART   BART_058.201406… BART_058.2… 2014-06-03       AEDINT  
#>  5 BART_058.mosqu… BART   BART_058.201406… BART_058.2… 2014-06-03       AEDCOM  
#>  6 BART_060.mosqu… BART   BART_060.201406… BART_060.2… 2014-06-03       AEDCOM  
#>  7 BART_060.mosqu… BART   BART_060.201406… BART_060.2… 2014-06-03       AEDABS  
#>  8 BART_060.mosqu… BART   BART_060.201406… BART_060.2… 2014-06-03       AEDINT  
#>  9 BART_054.mosqu… BART   BART_054.201406… BART_054.2… 2014-06-03       AEDCOM  
#> 10 BART_054.mosqu… BART   BART_054.201406… BART_054.2… 2014-06-03       AEDINT  
#> # … with 109,202 more rows, and 20 more variables: taxon_name <chr>,
#> #   taxon_rank <chr>, variable_name <chr>, value <dbl>, unit <chr>,
#> #   nativeStatusCode <chr>, release <chr>, remarks_sorting <chr>,
#> #   samplingProtocolVersion <chr>, sex <chr>, sortDate <chr>,
#> #   subsampleWeight <chr>, totalWeight <chr>, trapHours <chr>,
#> #   weightBelowDetection <chr>, latitude <dbl>, longitude <dbl>,
#> #   elevation <dbl>, nlcdClass <chr>, plotType <chr>
neonDivData::data_plant
#> # A tibble: 1,034,093 × 26
#>    location_id siteID plotID unique_sample_id subplotID subplot_id subsubplot_id
#>    <chr>       <chr>  <chr>  <chr>            <chr>     <chr>      <chr>        
#>  1 BART_006.b… BART   BART_… BART_006.basePl… 31.4.1    31         4            
#>  2 BART_006.b… BART   BART_… BART_006.basePl… 31.4.1    31         4            
#>  3 BART_006.b… BART   BART_… BART_006.basePl… 41.1.1    41         1            
#>  4 BART_006.b… BART   BART_… BART_006.basePl… 41.4.1    41         4            
#>  5 BART_006.b… BART   BART_… BART_006.basePl… 41.4.1    41         4            
#>  6 BART_006.b… BART   BART_… BART_006.basePl… 41.4.1    41         4            
#>  7 BART_006.b… BART   BART_… BART_006.basePl… 32.2.1    32         2            
#>  8 BART_006.b… BART   BART_… BART_006.basePl… 41.1.1    41         1            
#>  9 BART_006.b… BART   BART_… BART_006.basePl… 32.4.1    32         4            
#> 10 BART_006.b… BART   BART_… BART_006.basePl… 32.4.1    32         4            
#> # … with 1,034,083 more rows, and 19 more variables:
#> #   observation_datetime <dttm>, taxon_id <chr>, taxon_name <chr>,
#> #   taxon_rank <chr>, variable_name <chr>, value <dbl>, unit <chr>,
#> #   presence_absence <dbl>, boutNumber <chr>, nativeStatusCode <chr>,
#> #   heightPlantOver300cm <chr>, heightPlantSpecies <chr>, release <chr>,
#> #   sample_area_m2 <chr>, latitude <dbl>, longitude <dbl>, elevation <dbl>,
#> #   plotType <chr>, nlcdClass <chr>
neonDivData::data_small_mammal
#> # A tibble: 17,279 × 22
#>    location_id          siteID plotID unique_sample_id observation_dat… taxon_id
#>    <chr>                <chr>  <chr>  <chr>            <date>           <chr>   
#>  1 ABBY_002.mammalGrid… ABBY   ABBY_… ABBY_002.mammal… 2016-08-27       MIOR    
#>  2 ABBY_002.mammalGrid… ABBY   ABBY_… ABBY_002.mammal… 2016-08-27       PEKE    
#>  3 ABBY_002.mammalGrid… ABBY   ABBY_… ABBY_002.mammal… 2016-08-27       PEMA    
#>  4 ABBY_002.mammalGrid… ABBY   ABBY_… ABBY_002.mammal… 2016-08-27       SOMO    
#>  5 ABBY_002.mammalGrid… ABBY   ABBY_… ABBY_002.mammal… 2017-04-23       MIOR    
#>  6 ABBY_002.mammalGrid… ABBY   ABBY_… ABBY_002.mammal… 2017-04-23       PEMA    
#>  7 ABBY_002.mammalGrid… ABBY   ABBY_… ABBY_002.mammal… 2017-04-23       SOMO    
#>  8 ABBY_002.mammalGrid… ABBY   ABBY_… ABBY_002.mammal… 2017-04-23       SOSP    
#>  9 ABBY_002.mammalGrid… ABBY   ABBY_… ABBY_002.mammal… 2017-04-23       SOTR    
#> 10 ABBY_002.mammalGrid… ABBY   ABBY_… ABBY_002.mammal… 2017-04-23       SOVA    
#> # … with 17,269 more rows, and 16 more variables: taxon_name <chr>,
#> #   taxon_rank <chr>, variable_name <chr>, value <dbl>, unit <chr>, year <chr>,
#> #   month <chr>, n_trap_nights_per_bout_per_plot <chr>,
#> #   n_nights_per_bout <chr>, nativeStatusCode <chr>, release <chr>,
#> #   latitude <dbl>, longitude <dbl>, elevation <dbl>, plotType <chr>,
#> #   nlcdClass <chr>
neonDivData::data_tick
#> # A tibble: 357,235 × 22
#>    location_id       siteID plotID unique_sample_id observation_dateti… taxon_id
#>    <chr>             <chr>  <chr>  <chr>            <dttm>              <chr>   
#>  1 ABBY_001.tickPlo… ABBY   ABBY_… ABBY_001_2016-0… 2016-09-22 18:12:00 IXOSP   
#>  2 ABBY_001.tickPlo… ABBY   ABBY_… ABBY_001_2016-0… 2016-09-22 18:12:00 IXOSCA  
#>  3 ABBY_001.tickPlo… ABBY   ABBY_… ABBY_001_2016-0… 2016-09-22 18:12:00 AMBAME  
#>  4 ABBY_001.tickPlo… ABBY   ABBY_… ABBY_001_2016-0… 2016-09-22 18:12:00 AMBSPP  
#>  5 ABBY_001.tickPlo… ABBY   ABBY_… ABBY_001_2016-0… 2016-09-22 18:12:00 IXOSP2  
#>  6 ABBY_001.tickPlo… ABBY   ABBY_… ABBY_001_2016-0… 2016-09-22 18:12:00 IXOANG  
#>  7 ABBY_001.tickPlo… ABBY   ABBY_… ABBY_001_2016-0… 2016-09-22 18:12:00 IXOPAC  
#>  8 ABBY_001.tickPlo… ABBY   ABBY_… ABBY_001_2016-0… 2016-09-22 18:12:00 DERVAR  
#>  9 ABBY_001.tickPlo… ABBY   ABBY_… ABBY_001_2016-0… 2016-09-22 18:12:00 IXOSCA  
#> 10 ABBY_001.tickPlo… ABBY   ABBY_… ABBY_001_2016-0… 2016-09-22 18:12:00 AMBAME  
#> # … with 357,225 more rows, and 16 more variables: taxon_name <chr>,
#> #   taxon_rank <chr>, variable_name <chr>, value <dbl>, unit <chr>,
#> #   LifeStage <chr>, release <chr>, remarks_field <chr>, samplingMethod <chr>,
#> #   targetTaxaPresent <chr>, totalSampledArea <chr>, latitude <dbl>,
#> #   longitude <dbl>, elevation <dbl>, nlcdClass <chr>, plotType <chr>
…
